[2021-01-25T12:09:11.105+0100][gc] Using G1
[2021-01-25T12:09:11.111+0100][gc,init] Version: 15.0.2+7-27 (release)
[2021-01-25T12:09:11.111+0100][gc,init] CPUs: 8 total, 8 available
[2021-01-25T12:09:11.111+0100][gc,init] Memory: 15775M
[2021-01-25T12:09:11.111+0100][gc,init] Large Page Support: Disabled
[2021-01-25T12:09:11.111+0100][gc,init] NUMA Support: Disabled
[2021-01-25T12:09:11.111+0100][gc,init] Compressed Oops: Enabled (32-bit)
[2021-01-25T12:09:11.111+0100][gc,init] Heap Region Size: 1M
[2021-01-25T12:09:11.111+0100][gc,init] Heap Min Capacity: 1G
[2021-01-25T12:09:11.111+0100][gc,init] Heap Initial Capacity: 1G
[2021-01-25T12:09:11.111+0100][gc,init] Heap Max Capacity: 1G
[2021-01-25T12:09:11.111+0100][gc,init] Pre-touch: Disabled
[2021-01-25T12:09:11.111+0100][gc,init] Parallel Workers: 8
[2021-01-25T12:09:11.111+0100][gc,init] Concurrent Workers: 2
[2021-01-25T12:09:11.111+0100][gc,init] Concurrent Refinement Workers: 8
[2021-01-25T12:09:11.111+0100][gc,init] Periodic GC: Disabled
[2021-01-25T12:09:11.112+0100][gc,cds ] Mark closed archive regions in map: [0x00000000fff00000, 0x00000000fff7bff8]
[2021-01-25T12:09:11.112+0100][gc,cds ] Mark open archive regions in map: [0x00000000ffe00000, 0x00000000ffe51ff8]
[2021-01-25T12:09:11.112+0100][gc,metaspace] CDS archive(s) mapped at: [0x0000000800000000-0x0000000800b36000-0x0000000800b36000), size 11755520, SharedBaseAddress: 0x0000000800000000, ArchiveRelocationMode: 0.
[2021-01-25T12:09:11.112+0100][gc,metaspace] Compressed class space mapped at: 0x0000000800b38000-0x0000000840b38000, size: 1073741824
[2021-01-25T12:09:11.112+0100][gc,metaspace] Narrow klass base: 0x0000000800000000, Narrow klass shift: 3, Narrow klass range: 0x100000000
[2021-01-25T12:09:12.332+0100][gc,start    ] GC(0) Pause Young (Normal) (G1 Evacuation Pause)
[2021-01-25T12:09:12.333+0100][gc,task     ] GC(0) Using 8 workers of 8 for evacuation
[2021-01-25T12:09:12.337+0100][gc,phases   ] GC(0)   Pre Evacuate Collection Set: 0,1ms
[2021-01-25T12:09:12.337+0100][gc,phases   ] GC(0)   Merge Heap Roots: 0,0ms
[2021-01-25T12:09:12.337+0100][gc,phases   ] GC(0)   Evacuate Collection Set: 3,7ms
[2021-01-25T12:09:12.337+0100][gc,phases   ] GC(0)   Post Evacuate Collection Set: 0,4ms
[2021-01-25T12:09:12.337+0100][gc,phases   ] GC(0)   Other: 0,9ms
[2021-01-25T12:09:12.337+0100][gc,heap     ] GC(0) Eden regions: 51->0(44)
[2021-01-25T12:09:12.337+0100][gc,heap     ] GC(0) Survivor regions: 0->7(7)
[2021-01-25T12:09:12.337+0100][gc,heap     ] GC(0) Old regions: 0->0
[2021-01-25T12:09:12.337+0100][gc,heap     ] GC(0) Archive regions: 2->2
[2021-01-25T12:09:12.337+0100][gc,heap     ] GC(0) Humongous regions: 0->0
[2021-01-25T12:09:12.337+0100][gc,metaspace] GC(0) Metaspace: 19291K(20096K)->19291K(20096K) NonClass: 16988K(17664K)->16988K(17664K) Class: 2302K(2432K)->2302K(2432K)
[2021-01-25T12:09:12.337+0100][gc          ] GC(0) Pause Young (Normal) (G1 Evacuation Pause) 51M->7M(1024M) 5,203ms
[2021-01-25T12:09:12.337+0100][gc,cpu      ] GC(0) User=0,03s Sys=0,01s Real=0,00s
[2021-01-25T12:09:12.444+0100][gc,start    ] GC(1) Pause Young (Concurrent Start) (Metadata GC Threshold)
[2021-01-25T12:09:12.444+0100][gc,task     ] GC(1) Using 8 workers of 8 for evacuation
[2021-01-25T12:09:12.448+0100][gc,phases   ] GC(1)   Pre Evacuate Collection Set: 0,1ms
[2021-01-25T12:09:12.448+0100][gc,phases   ] GC(1)   Merge Heap Roots: 0,1ms
[2021-01-25T12:09:12.448+0100][gc,phases   ] GC(1)   Evacuate Collection Set: 4,2ms
[2021-01-25T12:09:12.448+0100][gc,phases   ] GC(1)   Post Evacuate Collection Set: 0,3ms
[2021-01-25T12:09:12.448+0100][gc,phases   ] GC(1)   Other: 0,2ms
[2021-01-25T12:09:12.448+0100][gc,heap     ] GC(1) Eden regions: 7->0(50)
[2021-01-25T12:09:12.448+0100][gc,heap     ] GC(1) Survivor regions: 7->1(7)
[2021-01-25T12:09:12.448+0100][gc,heap     ] GC(1) Old regions: 0->7
[2021-01-25T12:09:12.448+0100][gc,heap     ] GC(1) Archive regions: 2->2
[2021-01-25T12:09:12.448+0100][gc,heap     ] GC(1) Humongous regions: 0->0
[2021-01-25T12:09:12.448+0100][gc,metaspace] GC(1) Metaspace: 20641K(21248K)->20641K(21248K) NonClass: 18192K(18688K)->18192K(18688K) Class: 2448K(2560K)->2448K(2560K)
[2021-01-25T12:09:12.448+0100][gc          ] GC(1) Pause Young (Concurrent Start) (Metadata GC Threshold) 13M->8M(1024M) 4,983ms
[2021-01-25T12:09:12.448+0100][gc,cpu      ] GC(1) User=0,04s Sys=0,00s Real=0,00s
[2021-01-25T12:09:12.449+0100][gc          ] GC(2) Concurrent Cycle
[2021-01-25T12:09:12.449+0100][gc,marking  ] GC(2) Concurrent Clear Claimed Marks
[2021-01-25T12:09:12.449+0100][gc,marking  ] GC(2) Concurrent Clear Claimed Marks 0,019ms
[2021-01-25T12:09:12.449+0100][gc,marking  ] GC(2) Concurrent Scan Root Regions
[2021-01-25T12:09:12.451+0100][gc,marking  ] GC(2) Concurrent Scan Root Regions 2,833ms
[2021-01-25T12:09:12.451+0100][gc,marking  ] GC(2) Concurrent Mark (1,350s)
[2021-01-25T12:09:12.451+0100][gc,marking  ] GC(2) Concurrent Mark From Roots
[2021-01-25T12:09:12.451+0100][gc,task     ] GC(2) Using 2 workers of 2 for marking
[2021-01-25T12:09:12.453+0100][gc,marking  ] GC(2) Concurrent Mark From Roots 1,962ms
[2021-01-25T12:09:12.453+0100][gc,marking  ] GC(2) Concurrent Preclean
[2021-01-25T12:09:12.454+0100][gc,marking  ] GC(2) Concurrent Preclean 0,104ms
[2021-01-25T12:09:12.454+0100][gc,marking  ] GC(2) Concurrent Mark (1,350s, 1,352s) 2,104ms
[2021-01-25T12:09:12.516+0100][gc,start    ] GC(2) Pause Remark
[2021-01-25T12:09:12.517+0100][gc          ] GC(2) Pause Remark 137M->137M(1024M) 0,767ms
[2021-01-25T12:09:12.517+0100][gc,cpu      ] GC(2) User=0,00s Sys=0,00s Real=0,00s
[2021-01-25T12:09:12.517+0100][gc,marking  ] GC(2) Concurrent Rebuild Remembered Sets
[2021-01-25T12:09:12.520+0100][gc,marking  ] GC(2) Concurrent Rebuild Remembered Sets 3,098ms
[2021-01-25T12:09:12.521+0100][gc,start    ] GC(2) Pause Cleanup
[2021-01-25T12:09:12.521+0100][gc          ] GC(2) Pause Cleanup 138M->138M(1024M) 0,152ms
[2021-01-25T12:09:12.521+0100][gc,cpu      ] GC(2) User=0,00s Sys=0,00s Real=0,00s
[2021-01-25T12:09:12.521+0100][gc,marking  ] GC(2) Concurrent Cleanup for Next Mark
[2021-01-25T12:09:12.527+0100][gc,marking  ] GC(2) Concurrent Cleanup for Next Mark 6,046ms
[2021-01-25T12:09:12.527+0100][gc          ] GC(2) Concurrent Cycle 78,363ms
[2021-01-25T12:09:13.242+0100][gc,start    ] GC(3) Pause Young (Normal) (G1 Evacuation Pause)
[2021-01-25T12:09:13.242+0100][gc,task     ] GC(3) Using 8 workers of 8 for evacuation
[2021-01-25T12:09:13.247+0100][gc,phases   ] GC(3)   Pre Evacuate Collection Set: 0,2ms
[2021-01-25T12:09:13.247+0100][gc,phases   ] GC(3)   Merge Heap Roots: 0,1ms
[2021-01-25T12:09:13.247+0100][gc,phases   ] GC(3)   Evacuate Collection Set: 4,5ms
[2021-01-25T12:09:13.247+0100][gc,phases   ] GC(3)   Post Evacuate Collection Set: 0,4ms
[2021-01-25T12:09:13.247+0100][gc,phases   ] GC(3)   Other: 0,2ms
[2021-01-25T12:09:13.247+0100][gc,heap     ] GC(3) Eden regions: 50->0(46)
[2021-01-25T12:09:13.247+0100][gc,heap     ] GC(3) Survivor regions: 1->5(7)
[2021-01-25T12:09:13.247+0100][gc,heap     ] GC(3) Old regions: 7->7
[2021-01-25T12:09:13.247+0100][gc,heap     ] GC(3) Archive regions: 2->2
[2021-01-25T12:09:13.247+0100][gc,heap     ] GC(3) Humongous regions: 129->129
[2021-01-25T12:09:13.247+0100][gc,metaspace] GC(3) Metaspace: 32628K(33792K)->32628K(33792K) NonClass: 29124K(30208K)->29124K(30208K) Class: 3504K(3584K)->3504K(3584K)
[2021-01-25T12:09:13.247+0100][gc          ] GC(3) Pause Young (Normal) (G1 Evacuation Pause) 187M->141M(1024M) 5,400ms
[2021-01-25T12:09:13.247+0100][gc,cpu      ] GC(3) User=0,03s Sys=0,00s Real=0,00s
[2021-01-25T12:11:30.699+0100][gc,start    ] GC(4) Pause Young (Concurrent Start) (Metadata GC Threshold)
[2021-01-25T12:11:30.699+0100][gc,task     ] GC(4) Using 8 workers of 8 for evacuation
[2021-01-25T12:11:30.704+0100][gc,phases   ] GC(4)   Pre Evacuate Collection Set: 0,2ms
[2021-01-25T12:11:30.704+0100][gc,phases   ] GC(4)   Merge Heap Roots: 0,0ms
[2021-01-25T12:11:30.704+0100][gc,phases   ] GC(4)   Evacuate Collection Set: 4,1ms
[2021-01-25T12:11:30.704+0100][gc,phases   ] GC(4)   Post Evacuate Collection Set: 0,4ms
[2021-01-25T12:11:30.704+0100][gc,phases   ] GC(4)   Other: 0,2ms
[2021-01-25T12:11:30.704+0100][gc,heap     ] GC(4) Eden regions: 11->0(50)
[2021-01-25T12:11:30.704+0100][gc,heap     ] GC(4) Survivor regions: 5->1(7)
[2021-01-25T12:11:30.704+0100][gc,heap     ] GC(4) Old regions: 7->12
[2021-01-25T12:11:30.704+0100][gc,heap     ] GC(4) Archive regions: 2->2
[2021-01-25T12:11:30.704+0100][gc,heap     ] GC(4) Humongous regions: 129->129
[2021-01-25T12:11:30.704+0100][gc,metaspace] GC(4) Metaspace: 34778K(35840K)->34778K(35840K) NonClass: 30995K(31872K)->30995K(31872K) Class: 3783K(3968K)->3783K(3968K)
[2021-01-25T12:11:30.704+0100][gc          ] GC(4) Pause Young (Concurrent Start) (Metadata GC Threshold) 152M->142M(1024M) 5,122ms
[2021-01-25T12:11:30.704+0100][gc,cpu      ] GC(4) User=0,02s Sys=0,00s Real=0,01s
[2021-01-25T12:11:30.704+0100][gc          ] GC(5) Concurrent Cycle
[2021-01-25T12:11:30.704+0100][gc,marking  ] GC(5) Concurrent Clear Claimed Marks
[2021-01-25T12:11:30.704+0100][gc,marking  ] GC(5) Concurrent Clear Claimed Marks 0,024ms
[2021-01-25T12:11:30.704+0100][gc,marking  ] GC(5) Concurrent Scan Root Regions
[2021-01-25T12:11:30.707+0100][gc,marking  ] GC(5) Concurrent Scan Root Regions 2,931ms
[2021-01-25T12:11:30.707+0100][gc,marking  ] GC(5) Concurrent Mark (139,605s)
[2021-01-25T12:11:30.707+0100][gc,marking  ] GC(5) Concurrent Mark From Roots
[2021-01-25T12:11:30.707+0100][gc,task     ] GC(5) Using 2 workers of 2 for marking
[2021-01-25T12:11:30.733+0100][gc,marking  ] GC(5) Concurrent Mark From Roots 25,892ms
[2021-01-25T12:11:30.733+0100][gc,marking  ] GC(5) Concurrent Preclean
[2021-01-25T12:11:30.733+0100][gc,marking  ] GC(5) Concurrent Preclean 0,196ms
[2021-01-25T12:11:30.733+0100][gc,marking  ] GC(5) Concurrent Mark (139,605s, 139,632s) 26,158ms
[2021-01-25T12:11:30.734+0100][gc,start    ] GC(5) Pause Remark
[2021-01-25T12:11:30.735+0100][gc          ] GC(5) Pause Remark 144M->144M(1024M) 1,491ms
[2021-01-25T12:11:30.735+0100][gc,cpu      ] GC(5) User=0,01s Sys=0,00s Real=0,00s
[2021-01-25T12:11:30.735+0100][gc,marking  ] GC(5) Concurrent Rebuild Remembered Sets
[2021-01-25T12:11:30.751+0100][gc,marking  ] GC(5) Concurrent Rebuild Remembered Sets 15,408ms
[2021-01-25T12:11:30.761+0100][gc,start    ] GC(5) Pause Cleanup
[2021-01-25T12:11:30.761+0100][gc          ] GC(5) Pause Cleanup 144M->144M(1024M) 0,233ms
[2021-01-25T12:11:30.761+0100][gc,cpu      ] GC(5) User=0,00s Sys=0,00s Real=0,00s
[2021-01-25T12:11:30.761+0100][gc,marking  ] GC(5) Concurrent Cleanup for Next Mark
[2021-01-25T12:11:30.768+0100][gc,marking  ] GC(5) Concurrent Cleanup for Next Mark 6,786ms
[2021-01-25T12:11:30.768+0100][gc          ] GC(5) Concurrent Cycle 63,749ms
[2021-01-25T12:16:35.996+0100][gc,start    ] GC(6) Pause Young (Normal) (G1 Evacuation Pause)
[2021-01-25T12:16:35.996+0100][gc,task     ] GC(6) Using 8 workers of 8 for evacuation
[2021-01-25T12:16:36.002+0100][gc,phases   ] GC(6)   Pre Evacuate Collection Set: 0,2ms
[2021-01-25T12:16:36.002+0100][gc,phases   ] GC(6)   Merge Heap Roots: 0,1ms
[2021-01-25T12:16:36.002+0100][gc,phases   ] GC(6)   Evacuate Collection Set: 5,1ms
[2021-01-25T12:16:36.002+0100][gc,phases   ] GC(6)   Post Evacuate Collection Set: 0,7ms
[2021-01-25T12:16:36.002+0100][gc,phases   ] GC(6)   Other: 0,2ms
[2021-01-25T12:16:36.002+0100][gc,heap     ] GC(6) Eden regions: 50->0(46)
[2021-01-25T12:16:36.002+0100][gc,heap     ] GC(6) Survivor regions: 1->5(7)
[2021-01-25T12:16:36.002+0100][gc,heap     ] GC(6) Old regions: 12->12
[2021-01-25T12:16:36.002+0100][gc,heap     ] GC(6) Archive regions: 2->2
[2021-01-25T12:16:36.002+0100][gc,heap     ] GC(6) Humongous regions: 129->129
[2021-01-25T12:16:36.002+0100][gc,metaspace] GC(6) Metaspace: 39907K(40960K)->39907K(40960K) NonClass: 35557K(36352K)->35557K(36352K) Class: 4349K(4608K)->4349K(4608K)
[2021-01-25T12:16:36.002+0100][gc          ] GC(6) Pause Young (Normal) (G1 Evacuation Pause) 192M->145M(1024M) 6,303ms
[2021-01-25T12:16:36.002+0100][gc,cpu      ] GC(6) User=0,02s Sys=0,00s Real=0,01s
[2021-01-25T12:30:12.720+0100][gc,start    ] GC(7) Pause Young (Normal) (G1 Evacuation Pause)
[2021-01-25T12:30:12.720+0100][gc,task     ] GC(7) Using 8 workers of 8 for evacuation
[2021-01-25T12:30:12.728+0100][gc,phases   ] GC(7)   Pre Evacuate Collection Set: 0,3ms
[2021-01-25T12:30:12.728+0100][gc,phases   ] GC(7)   Merge Heap Roots: 0,2ms
[2021-01-25T12:30:12.728+0100][gc,phases   ] GC(7)   Evacuate Collection Set: 6,8ms
[2021-01-25T12:30:12.728+0100][gc,phases   ] GC(7)   Post Evacuate Collection Set: 0,4ms
[2021-01-25T12:30:12.728+0100][gc,phases   ] GC(7)   Other: 0,3ms
[2021-01-25T12:30:12.728+0100][gc,heap     ] GC(7) Eden regions: 46->0(49)
[2021-01-25T12:30:12.728+0100][gc,heap     ] GC(7) Survivor regions: 5->2(7)
[2021-01-25T12:30:12.728+0100][gc,heap     ] GC(7) Old regions: 12->15
[2021-01-25T12:30:12.728+0100][gc,heap     ] GC(7) Archive regions: 2->2
[2021-01-25T12:30:12.728+0100][gc,heap     ] GC(7) Humongous regions: 129->129
[2021-01-25T12:30:12.728+0100][gc,metaspace] GC(7) Metaspace: 40345K(41472K)->40345K(41472K) NonClass: 35965K(36864K)->35965K(36864K) Class: 4380K(4608K)->4380K(4608K)
[2021-01-25T12:30:12.728+0100][gc          ] GC(7) Pause Young (Normal) (G1 Evacuation Pause) 191M->145M(1024M) 8,186ms
[2021-01-25T12:30:12.728+0100][gc,cpu      ] GC(7) User=0,03s Sys=0,03s Real=0,00s
[2021-01-25T12:44:42.441+0100][gc,start    ] GC(8) Pause Young (Normal) (G1 Evacuation Pause)
[2021-01-25T12:44:42.442+0100][gc,task     ] GC(8) Using 8 workers of 8 for evacuation
[2021-01-25T12:44:42.453+0100][gc,phases   ] GC(8)   Pre Evacuate Collection Set: 0,4ms
[2021-01-25T12:44:42.453+0100][gc,phases   ] GC(8)   Merge Heap Roots: 0,2ms
[2021-01-25T12:44:42.453+0100][gc,phases   ] GC(8)   Evacuate Collection Set: 9,7ms
[2021-01-25T12:44:42.453+0100][gc,phases   ] GC(8)   Post Evacuate Collection Set: 1,0ms
[2021-01-25T12:44:42.453+0100][gc,phases   ] GC(8)   Other: 0,3ms
[2021-01-25T12:44:42.453+0100][gc,heap     ] GC(8) Eden regions: 49->0(46)
[2021-01-25T12:44:42.453+0100][gc,heap     ] GC(8) Survivor regions: 2->5(7)
[2021-01-25T12:44:42.453+0100][gc,heap     ] GC(8) Old regions: 15->15
[2021-01-25T12:44:42.453+0100][gc,heap     ] GC(8) Archive regions: 2->2
[2021-01-25T12:44:42.453+0100][gc,heap     ] GC(8) Humongous regions: 129->129
[2021-01-25T12:44:42.453+0100][gc,metaspace] GC(8) Metaspace: 40551K(41728K)->40551K(41728K) NonClass: 36171K(37120K)->36171K(37120K) Class: 4380K(4608K)->4380K(4608K)
[2021-01-25T12:44:42.453+0100][gc          ] GC(8) Pause Young (Normal) (G1 Evacuation Pause) 194M->148M(1024M) 11,982ms
[2021-01-25T12:44:42.453+0100][gc,cpu      ] GC(8) User=0,07s Sys=0,00s Real=0,01s
[2021-01-25T12:58:44.409+0100][gc,start    ] GC(9) Pause Young (Normal) (G1 Evacuation Pause)
[2021-01-25T12:58:44.409+0100][gc,task     ] GC(9) Using 8 workers of 8 for evacuation
[2021-01-25T12:58:44.424+0100][gc,phases   ] GC(9)   Pre Evacuate Collection Set: 0,4ms
[2021-01-25T12:58:44.424+0100][gc,phases   ] GC(9)   Merge Heap Roots: 0,2ms
[2021-01-25T12:58:44.424+0100][gc,phases   ] GC(9)   Evacuate Collection Set: 13,1ms
[2021-01-25T12:58:44.424+0100][gc,phases   ] GC(9)   Post Evacuate Collection Set: 0,7ms
[2021-01-25T12:58:44.424+0100][gc,phases   ] GC(9)   Other: 0,4ms
[2021-01-25T12:58:44.424+0100][gc,heap     ] GC(9) Eden regions: 46->0(45)
[2021-01-25T12:58:44.424+0100][gc,heap     ] GC(9) Survivor regions: 5->6(7)
[2021-01-25T12:58:44.424+0100][gc,heap     ] GC(9) Old regions: 15->16
[2021-01-25T12:58:44.424+0100][gc,heap     ] GC(9) Archive regions: 2->2
[2021-01-25T12:58:44.424+0100][gc,heap     ] GC(9) Humongous regions: 129->129
[2021-01-25T12:58:44.424+0100][gc,metaspace] GC(9) Metaspace: 40597K(41728K)->40597K(41728K) NonClass: 36216K(37120K)->36216K(37120K) Class: 4380K(4608K)->4380K(4608K)
[2021-01-25T12:58:44.424+0100][gc          ] GC(9) Pause Young (Normal) (G1 Evacuation Pause) 194M->150M(1024M) 15,112ms
[2021-01-25T12:58:44.424+0100][gc,cpu      ] GC(9) User=0,08s Sys=0,00s Real=0,02s
[2021-01-25T13:11:48.329+0100][gc,start    ] GC(10) Pause Young (Normal) (G1 Evacuation Pause)
[2021-01-25T13:11:48.329+0100][gc,task     ] GC(10) Using 8 workers of 8 for evacuation
[2021-01-25T13:11:48.349+0100][gc,mmu      ] GC(10) MMU target violated: 20,4ms (20,0ms/21,0ms)
[2021-01-25T13:11:48.350+0100][gc,phases   ] GC(10)   Pre Evacuate Collection Set: 0,3ms
[2021-01-25T13:11:48.350+0100][gc,phases   ] GC(10)   Merge Heap Roots: 0,2ms
[2021-01-25T13:11:48.350+0100][gc,phases   ] GC(10)   Evacuate Collection Set: 18,9ms
[2021-01-25T13:11:48.350+0100][gc,phases   ] GC(10)   Post Evacuate Collection Set: 1,0ms
[2021-01-25T13:11:48.350+0100][gc,phases   ] GC(10)   Other: 0,5ms
[2021-01-25T13:11:48.350+0100][gc,heap     ] GC(10) Eden regions: 45->0(44)
[2021-01-25T13:11:48.350+0100][gc,heap     ] GC(10) Survivor regions: 6->7(7)
[2021-01-25T13:11:48.350+0100][gc,heap     ] GC(10) Old regions: 16->18
[2021-01-25T13:11:48.350+0100][gc,heap     ] GC(10) Archive regions: 2->2
[2021-01-25T13:11:48.350+0100][gc,heap     ] GC(10) Humongous regions: 129->129
[2021-01-25T13:11:48.350+0100][gc,metaspace] GC(10) Metaspace: 40683K(41728K)->40683K(41728K) NonClass: 36294K(37120K)->36294K(37120K) Class: 4389K(4608K)->4389K(4608K)
[2021-01-25T13:11:48.350+0100][gc          ] GC(10) Pause Young (Normal) (G1 Evacuation Pause) 195M->154M(1024M) 21,259ms
[2021-01-25T13:11:48.350+0100][gc,cpu      ] GC(10) User=0,14s Sys=0,00s Real=0,02s
[2021-01-25T13:25:30.509+0100][gc,start    ] GC(11) Pause Young (Normal) (G1 Evacuation Pause)
[2021-01-25T13:25:30.509+0100][gc,task     ] GC(11) Using 8 workers of 8 for evacuation
[2021-01-25T13:25:30.526+0100][gc,phases   ] GC(11)   Pre Evacuate Collection Set: 0,3ms
[2021-01-25T13:25:30.526+0100][gc,phases   ] GC(11)   Merge Heap Roots: 0,2ms
[2021-01-25T13:25:30.526+0100][gc,phases   ] GC(11)   Evacuate Collection Set: 14,7ms
[2021-01-25T13:25:30.526+0100][gc,phases   ] GC(11)   Post Evacuate Collection Set: 1,2ms
[2021-01-25T13:25:30.526+0100][gc,phases   ] GC(11)   Other: 0,4ms
[2021-01-25T13:25:30.526+0100][gc,heap     ] GC(11) Eden regions: 44->0(72)
[2021-01-25T13:25:30.526+0100][gc,heap     ] GC(11) Survivor regions: 7->3(7)
[2021-01-25T13:25:30.526+0100][gc,heap     ] GC(11) Old regions: 18->23
[2021-01-25T13:25:30.526+0100][gc,heap     ] GC(11) Archive regions: 2->2
[2021-01-25T13:25:30.526+0100][gc,heap     ] GC(11) Humongous regions: 129->129
[2021-01-25T13:25:30.526+0100][gc,metaspace] GC(11) Metaspace: 40740K(41984K)->40740K(41984K) NonClass: 36351K(37376K)->36351K(37376K) Class: 4389K(4608K)->4389K(4608K)
[2021-01-25T13:25:30.527+0100][gc          ] GC(11) Pause Young (Normal) (G1 Evacuation Pause) 198M->154M(1024M) 17,180ms
[2021-01-25T13:25:30.527+0100][gc,cpu      ] GC(11) User=0,12s Sys=0,00s Real=0,02s
[2021-01-25T13:48:05.680+0100][gc,start    ] GC(12) Pause Young (Normal) (G1 Evacuation Pause)
[2021-01-25T13:48:05.680+0100][gc,task     ] GC(12) Using 8 workers of 8 for evacuation
[2021-01-25T13:48:05.694+0100][gc,phases   ] GC(12)   Pre Evacuate Collection Set: 0,4ms
[2021-01-25T13:48:05.694+0100][gc,phases   ] GC(12)   Merge Heap Roots: 0,2ms
[2021-01-25T13:48:05.694+0100][gc,phases   ] GC(12)   Evacuate Collection Set: 12,1ms
[2021-01-25T13:48:05.694+0100][gc,phases   ] GC(12)   Post Evacuate Collection Set: 1,1ms
[2021-01-25T13:48:05.694+0100][gc,phases   ] GC(12)   Other: 0,3ms
[2021-01-25T13:48:05.694+0100][gc,heap     ] GC(12) Eden regions: 72->0(48)
[2021-01-25T13:48:05.694+0100][gc,heap     ] GC(12) Survivor regions: 3->5(10)
[2021-01-25T13:48:05.694+0100][gc,heap     ] GC(12) Old regions: 23->23
[2021-01-25T13:48:05.694+0100][gc,heap     ] GC(12) Archive regions: 2->2
[2021-01-25T13:48:05.694+0100][gc,heap     ] GC(12) Humongous regions: 129->129
[2021-01-25T13:48:05.694+0100][gc,metaspace] GC(12) Metaspace: 40793K(41984K)->40793K(41984K) NonClass: 36404K(37376K)->36404K(37376K) Class: 4389K(4608K)->4389K(4608K)
[2021-01-25T13:48:05.694+0100][gc          ] GC(12) Pause Young (Normal) (G1 Evacuation Pause) 226M->157M(1024M) 14,490ms
[2021-01-25T13:48:05.694+0100][gc,cpu      ] GC(12) User=0,09s Sys=0,00s Real=0,01s
[2021-01-25T14:03:04.375+0100][gc,start    ] GC(13) Pause Young (Normal) (G1 Evacuation Pause)
[2021-01-25T14:03:04.376+0100][gc,task     ] GC(13) Using 8 workers of 8 for evacuation
[2021-01-25T14:03:04.383+0100][gc,phases   ] GC(13)   Pre Evacuate Collection Set: 0,3ms
[2021-01-25T14:03:04.384+0100][gc,phases   ] GC(13)   Merge Heap Roots: 0,2ms
[2021-01-25T14:03:04.384+0100][gc,phases   ] GC(13)   Evacuate Collection Set: 6,9ms
[2021-01-25T14:03:04.384+0100][gc,phases   ] GC(13)   Post Evacuate Collection Set: 0,3ms
[2021-01-25T14:03:04.384+0100][gc,phases   ] GC(13)   Other: 0,4ms
[2021-01-25T14:03:04.384+0100][gc,heap     ] GC(13) Eden regions: 48->0(120)
[2021-01-25T14:03:04.384+0100][gc,heap     ] GC(13) Survivor regions: 5->4(7)
[2021-01-25T14:03:04.384+0100][gc,heap     ] GC(13) Old regions: 23->26
[2021-01-25T14:03:04.384+0100][gc,heap     ] GC(13) Archive regions: 2->2
[2021-01-25T14:03:04.384+0100][gc,heap     ] GC(13) Humongous regions: 129->129
[2021-01-25T14:03:04.384+0100][gc,metaspace] GC(13) Metaspace: 40796K(41984K)->40796K(41984K) NonClass: 36406K(37376K)->36406K(37376K) Class: 4389K(4608K)->4389K(4608K)
[2021-01-25T14:03:04.384+0100][gc          ] GC(13) Pause Young (Normal) (G1 Evacuation Pause) 205M->158M(1024M) 8,151ms
[2021-01-25T14:03:04.384+0100][gc,cpu      ] GC(13) User=0,06s Sys=0,00s Real=0,01s
[2021-01-25T14:40:13.168+0100][gc,start    ] GC(14) Pause Young (Normal) (G1 Evacuation Pause)
[2021-01-25T14:40:13.168+0100][gc,task     ] GC(14) Using 8 workers of 8 for evacuation
[2021-01-25T14:40:13.177+0100][gc,phases   ] GC(14)   Pre Evacuate Collection Set: 0,3ms
[2021-01-25T14:40:13.177+0100][gc,phases   ] GC(14)   Merge Heap Roots: 0,1ms
[2021-01-25T14:40:13.177+0100][gc,phases   ] GC(14)   Evacuate Collection Set: 7,8ms
[2021-01-25T14:40:13.177+0100][gc,phases   ] GC(14)   Post Evacuate Collection Set: 0,8ms
[2021-01-25T14:40:13.177+0100][gc,phases   ] GC(14)   Other: 0,3ms
[2021-01-25T14:40:13.177+0100][gc,heap     ] GC(14) Eden regions: 120->0(117)
[2021-01-25T14:40:13.177+0100][gc,heap     ] GC(14) Survivor regions: 4->5(16)
[2021-01-25T14:40:13.177+0100][gc,heap     ] GC(14) Old regions: 26->26
[2021-01-25T14:40:13.177+0100][gc,heap     ] GC(14) Archive regions: 2->2
[2021-01-25T14:40:13.177+0100][gc,heap     ] GC(14) Humongous regions: 129->129
[2021-01-25T14:40:13.177+0100][gc,metaspace] GC(14) Metaspace: 40848K(41984K)->40848K(41984K) NonClass: 36459K(37376K)->36459K(37376K) Class: 4389K(4608K)->4389K(4608K)
[2021-01-25T14:40:13.178+0100][gc          ] GC(14) Pause Young (Normal) (G1 Evacuation Pause) 278M->159M(1024M) 9,536ms
[2021-01-25T14:40:13.178+0100][gc,cpu      ] GC(14) User=0,05s Sys=0,01s Real=0,01s
[2021-01-25T15:16:25.995+0100][gc,start    ] GC(15) Pause Young (Normal) (G1 Evacuation Pause)
[2021-01-25T15:16:25.995+0100][gc,task     ] GC(15) Using 8 workers of 8 for evacuation
[2021-01-25T15:16:26.000+0100][gc,phases   ] GC(15)   Pre Evacuate Collection Set: 0,3ms
[2021-01-25T15:16:26.000+0100][gc,phases   ] GC(15)   Merge Heap Roots: 0,1ms
[2021-01-25T15:16:26.000+0100][gc,phases   ] GC(15)   Evacuate Collection Set: 3,4ms
[2021-01-25T15:16:26.000+0100][gc,phases   ] GC(15)   Post Evacuate Collection Set: 0,4ms
[2021-01-25T15:16:26.000+0100][gc,phases   ] GC(15)   Other: 0,1ms
[2021-01-25T15:16:26.000+0100][gc,heap     ] GC(15) Eden regions: 117->0(608)
[2021-01-25T15:16:26.000+0100][gc,heap     ] GC(15) Survivor regions: 5->6(16)
[2021-01-25T15:16:26.000+0100][gc,heap     ] GC(15) Old regions: 26->26
[2021-01-25T15:16:26.000+0100][gc,heap     ] GC(15) Archive regions: 2->2
[2021-01-25T15:16:26.000+0100][gc,heap     ] GC(15) Humongous regions: 129->129
[2021-01-25T15:16:26.000+0100][gc,metaspace] GC(15) Metaspace: 40858K(41984K)->40858K(41984K) NonClass: 36469K(37376K)->36469K(37376K) Class: 4389K(4608K)->4389K(4608K)
[2021-01-25T15:16:26.000+0100][gc          ] GC(15) Pause Young (Normal) (G1 Evacuation Pause) 276M->160M(1024M) 4,423ms
[2021-01-25T15:16:26.000+0100][gc,cpu      ] GC(15) User=0,03s Sys=0,00s Real=0,01s
