[2021-01-25T19:22:59.208+0100][gc] Using G1
[2021-01-25T19:22:59.215+0100][gc,init] Version: 15.0.2+7-27 (release)
[2021-01-25T19:22:59.215+0100][gc,init] CPUs: 8 total, 8 available
[2021-01-25T19:22:59.215+0100][gc,init] Memory: 15775M
[2021-01-25T19:22:59.215+0100][gc,init] Large Page Support: Disabled
[2021-01-25T19:22:59.215+0100][gc,init] NUMA Support: Disabled
[2021-01-25T19:22:59.215+0100][gc,init] Compressed Oops: Enabled (32-bit)
[2021-01-25T19:22:59.215+0100][gc,init] Heap Region Size: 1M
[2021-01-25T19:22:59.215+0100][gc,init] Heap Min Capacity: 1G
[2021-01-25T19:22:59.215+0100][gc,init] Heap Initial Capacity: 1G
[2021-01-25T19:22:59.215+0100][gc,init] Heap Max Capacity: 1G
[2021-01-25T19:22:59.215+0100][gc,init] Pre-touch: Disabled
[2021-01-25T19:22:59.215+0100][gc,init] Parallel Workers: 8
[2021-01-25T19:22:59.215+0100][gc,init] Concurrent Workers: 2
[2021-01-25T19:22:59.215+0100][gc,init] Concurrent Refinement Workers: 8
[2021-01-25T19:22:59.215+0100][gc,init] Periodic GC: Disabled
[2021-01-25T19:22:59.215+0100][gc,cds ] Mark closed archive regions in map: [0x00000000fff00000, 0x00000000fff7bff8]
[2021-01-25T19:22:59.215+0100][gc,cds ] Mark open archive regions in map: [0x00000000ffe00000, 0x00000000ffe51ff8]
[2021-01-25T19:22:59.215+0100][gc,metaspace] CDS archive(s) mapped at: [0x0000000800000000-0x0000000800b36000-0x0000000800b36000), size 11755520, SharedBaseAddress: 0x0000000800000000, ArchiveRelocationMode: 0.
[2021-01-25T19:22:59.215+0100][gc,metaspace] Compressed class space mapped at: 0x0000000800b38000-0x0000000840b38000, size: 1073741824
[2021-01-25T19:22:59.215+0100][gc,metaspace] Narrow klass base: 0x0000000800000000, Narrow klass shift: 3, Narrow klass range: 0x100000000
[2021-01-25T19:23:00.493+0100][gc,start    ] GC(0) Pause Young (Normal) (G1 Evacuation Pause)
[2021-01-25T19:23:00.494+0100][gc,task     ] GC(0) Using 8 workers of 8 for evacuation
[2021-01-25T19:23:00.498+0100][gc,phases   ] GC(0)   Pre Evacuate Collection Set: 0,1ms
[2021-01-25T19:23:00.498+0100][gc,phases   ] GC(0)   Merge Heap Roots: 0,0ms
[2021-01-25T19:23:00.498+0100][gc,phases   ] GC(0)   Evacuate Collection Set: 3,8ms
[2021-01-25T19:23:00.498+0100][gc,phases   ] GC(0)   Post Evacuate Collection Set: 0,4ms
[2021-01-25T19:23:00.498+0100][gc,phases   ] GC(0)   Other: 1,0ms
[2021-01-25T19:23:00.498+0100][gc,heap     ] GC(0) Eden regions: 51->0(44)
[2021-01-25T19:23:00.498+0100][gc,heap     ] GC(0) Survivor regions: 0->7(7)
[2021-01-25T19:23:00.498+0100][gc,heap     ] GC(0) Old regions: 0->0
[2021-01-25T19:23:00.498+0100][gc,heap     ] GC(0) Archive regions: 2->2
[2021-01-25T19:23:00.498+0100][gc,heap     ] GC(0) Humongous regions: 0->0
[2021-01-25T19:23:00.498+0100][gc,metaspace] GC(0) Metaspace: 19451K(20096K)->19451K(20096K) NonClass: 17127K(17664K)->17127K(17664K) Class: 2323K(2432K)->2323K(2432K)
[2021-01-25T19:23:00.498+0100][gc          ] GC(0) Pause Young (Normal) (G1 Evacuation Pause) 51M->7M(1024M) 5,516ms
[2021-01-25T19:23:00.498+0100][gc,cpu      ] GC(0) User=0,02s Sys=0,01s Real=0,00s
[2021-01-25T19:23:00.600+0100][gc,start    ] GC(1) Pause Young (Concurrent Start) (Metadata GC Threshold)
[2021-01-25T19:23:00.600+0100][gc,task     ] GC(1) Using 8 workers of 8 for evacuation
[2021-01-25T19:23:00.606+0100][gc,phases   ] GC(1)   Pre Evacuate Collection Set: 0,2ms
[2021-01-25T19:23:00.606+0100][gc,phases   ] GC(1)   Merge Heap Roots: 0,1ms
[2021-01-25T19:23:00.606+0100][gc,phases   ] GC(1)   Evacuate Collection Set: 5,8ms
[2021-01-25T19:23:00.606+0100][gc,phases   ] GC(1)   Post Evacuate Collection Set: 0,4ms
[2021-01-25T19:23:00.606+0100][gc,phases   ] GC(1)   Other: 0,3ms
[2021-01-25T19:23:00.606+0100][gc,heap     ] GC(1) Eden regions: 6->0(50)
[2021-01-25T19:23:00.606+0100][gc,heap     ] GC(1) Survivor regions: 7->1(7)
[2021-01-25T19:23:00.606+0100][gc,heap     ] GC(1) Old regions: 0->7
[2021-01-25T19:23:00.606+0100][gc,heap     ] GC(1) Archive regions: 2->2
[2021-01-25T19:23:00.606+0100][gc,heap     ] GC(1) Humongous regions: 0->0
[2021-01-25T19:23:00.606+0100][gc,metaspace] GC(1) Metaspace: 20656K(21248K)->20656K(21248K) NonClass: 18207K(18688K)->18207K(18688K) Class: 2448K(2560K)->2448K(2560K)
[2021-01-25T19:23:00.606+0100][gc          ] GC(1) Pause Young (Concurrent Start) (Metadata GC Threshold) 13M->8M(1024M) 6,799ms
[2021-01-25T19:23:00.606+0100][gc,cpu      ] GC(1) User=0,03s Sys=0,01s Real=0,00s
[2021-01-25T19:23:00.606+0100][gc          ] GC(2) Concurrent Cycle
[2021-01-25T19:23:00.606+0100][gc,marking  ] GC(2) Concurrent Clear Claimed Marks
[2021-01-25T19:23:00.606+0100][gc,marking  ] GC(2) Concurrent Clear Claimed Marks 0,022ms
[2021-01-25T19:23:00.606+0100][gc,marking  ] GC(2) Concurrent Scan Root Regions
[2021-01-25T19:23:00.610+0100][gc,marking  ] GC(2) Concurrent Scan Root Regions 3,377ms
[2021-01-25T19:23:00.610+0100][gc,marking  ] GC(2) Concurrent Mark (1,405s)
[2021-01-25T19:23:00.610+0100][gc,marking  ] GC(2) Concurrent Mark From Roots
[2021-01-25T19:23:00.610+0100][gc,task     ] GC(2) Using 2 workers of 2 for marking
[2021-01-25T19:23:00.612+0100][gc,marking  ] GC(2) Concurrent Mark From Roots 2,286ms
[2021-01-25T19:23:00.612+0100][gc,marking  ] GC(2) Concurrent Preclean
[2021-01-25T19:23:00.612+0100][gc,marking  ] GC(2) Concurrent Preclean 0,121ms
[2021-01-25T19:23:00.612+0100][gc,marking  ] GC(2) Concurrent Mark (1,405s, 1,407s) 2,486ms
[2021-01-25T19:23:00.681+0100][gc,start    ] GC(2) Pause Remark
[2021-01-25T19:23:00.682+0100][gc          ] GC(2) Pause Remark 137M->137M(1024M) 0,880ms
[2021-01-25T19:23:00.682+0100][gc,cpu      ] GC(2) User=0,00s Sys=0,01s Real=0,00s
[2021-01-25T19:23:00.682+0100][gc,marking  ] GC(2) Concurrent Rebuild Remembered Sets
[2021-01-25T19:23:00.685+0100][gc,marking  ] GC(2) Concurrent Rebuild Remembered Sets 3,507ms
[2021-01-25T19:23:00.686+0100][gc,start    ] GC(2) Pause Cleanup
[2021-01-25T19:23:00.686+0100][gc          ] GC(2) Pause Cleanup 138M->138M(1024M) 0,207ms
[2021-01-25T19:23:00.686+0100][gc,cpu      ] GC(2) User=0,00s Sys=0,00s Real=0,00s
[2021-01-25T19:23:00.686+0100][gc,marking  ] GC(2) Concurrent Cleanup for Next Mark
[2021-01-25T19:23:00.692+0100][gc,marking  ] GC(2) Concurrent Cleanup for Next Mark 5,478ms
[2021-01-25T19:23:00.692+0100][gc          ] GC(2) Concurrent Cycle 85,401ms
[2021-01-25T19:23:01.515+0100][gc,start    ] GC(3) Pause Young (Normal) (GCLocker Initiated GC)
[2021-01-25T19:23:01.515+0100][gc,task     ] GC(3) Using 8 workers of 8 for evacuation
[2021-01-25T19:23:01.523+0100][gc,phases   ] GC(3)   Pre Evacuate Collection Set: 0,1ms
[2021-01-25T19:23:01.523+0100][gc,phases   ] GC(3)   Merge Heap Roots: 0,0ms
[2021-01-25T19:23:01.523+0100][gc,phases   ] GC(3)   Evacuate Collection Set: 4,5ms
[2021-01-25T19:23:01.523+0100][gc,phases   ] GC(3)   Post Evacuate Collection Set: 2,7ms
[2021-01-25T19:23:01.523+0100][gc,phases   ] GC(3)   Other: 0,1ms
[2021-01-25T19:23:01.523+0100][gc,heap     ] GC(3) Eden regions: 50->0(46)
[2021-01-25T19:23:01.523+0100][gc,heap     ] GC(3) Survivor regions: 1->5(7)
[2021-01-25T19:23:01.523+0100][gc,heap     ] GC(3) Old regions: 7->7
[2021-01-25T19:23:01.523+0100][gc,heap     ] GC(3) Archive regions: 2->2
[2021-01-25T19:23:01.523+0100][gc,heap     ] GC(3) Humongous regions: 129->129
[2021-01-25T19:23:01.523+0100][gc,metaspace] GC(3) Metaspace: 32987K(33920K)->32987K(33920K) NonClass: 29419K(30208K)->29419K(30208K) Class: 3567K(3712K)->3567K(3712K)
[2021-01-25T19:23:01.523+0100][gc          ] GC(3) Pause Young (Normal) (GCLocker Initiated GC) 187M->141M(1024M) 8,004ms
[2021-01-25T19:23:01.523+0100][gc,cpu      ] GC(3) User=0,03s Sys=0,01s Real=0,01s
[2021-01-25T20:00:03.531+0100][gc,start    ] GC(4) Pause Young (Concurrent Start) (Metadata GC Threshold)
[2021-01-25T20:00:03.531+0100][gc,task     ] GC(4) Using 8 workers of 8 for evacuation
[2021-01-25T20:00:03.535+0100][gc,phases   ] GC(4)   Pre Evacuate Collection Set: 0,1ms
[2021-01-25T20:00:03.535+0100][gc,phases   ] GC(4)   Merge Heap Roots: 0,1ms
[2021-01-25T20:00:03.535+0100][gc,phases   ] GC(4)   Evacuate Collection Set: 3,3ms
[2021-01-25T20:00:03.535+0100][gc,phases   ] GC(4)   Post Evacuate Collection Set: 0,6ms
[2021-01-25T20:00:03.535+0100][gc,phases   ] GC(4)   Other: 0,2ms
[2021-01-25T20:00:03.535+0100][gc,heap     ] GC(4) Eden regions: 26->0(50)
[2021-01-25T20:00:03.535+0100][gc,heap     ] GC(4) Survivor regions: 5->1(7)
[2021-01-25T20:00:03.535+0100][gc,heap     ] GC(4) Old regions: 7->12
[2021-01-25T20:00:03.535+0100][gc,heap     ] GC(4) Archive regions: 2->2
[2021-01-25T20:00:03.535+0100][gc,heap     ] GC(4) Humongous regions: 129->129
[2021-01-25T20:00:03.535+0100][gc,metaspace] GC(4) Metaspace: 34860K(35840K)->34860K(35840K) NonClass: 31095K(31872K)->31095K(31872K) Class: 3765K(3968K)->3765K(3968K)
[2021-01-25T20:00:03.535+0100][gc          ] GC(4) Pause Young (Concurrent Start) (Metadata GC Threshold) 166M->142M(1024M) 4,381ms
[2021-01-25T20:00:03.535+0100][gc,cpu      ] GC(4) User=0,02s Sys=0,02s Real=0,00s
[2021-01-25T20:00:03.535+0100][gc          ] GC(5) Concurrent Cycle
[2021-01-25T20:00:03.535+0100][gc,marking  ] GC(5) Concurrent Clear Claimed Marks
[2021-01-25T20:00:03.535+0100][gc,marking  ] GC(5) Concurrent Clear Claimed Marks 0,032ms
[2021-01-25T20:00:03.535+0100][gc,marking  ] GC(5) Concurrent Scan Root Regions
[2021-01-25T20:00:03.538+0100][gc,marking  ] GC(5) Concurrent Scan Root Regions 2,625ms
[2021-01-25T20:00:03.538+0100][gc,marking  ] GC(5) Concurrent Mark (2224,333s)
[2021-01-25T20:00:03.538+0100][gc,marking  ] GC(5) Concurrent Mark From Roots
[2021-01-25T20:00:03.538+0100][gc,task     ] GC(5) Using 2 workers of 2 for marking
[2021-01-25T20:00:03.544+0100][gc,marking  ] GC(5) Concurrent Mark From Roots 6,459ms
[2021-01-25T20:00:03.544+0100][gc,marking  ] GC(5) Concurrent Preclean
[2021-01-25T20:00:03.545+0100][gc,marking  ] GC(5) Concurrent Preclean 0,236ms
[2021-01-25T20:00:03.545+0100][gc,marking  ] GC(5) Concurrent Mark (2224,333s, 2224,340s) 6,737ms
[2021-01-25T20:00:03.545+0100][gc,start    ] GC(5) Pause Remark
[2021-01-25T20:00:03.548+0100][gc          ] GC(5) Pause Remark 142M->142M(1024M) 3,448ms
[2021-01-25T20:00:03.548+0100][gc,cpu      ] GC(5) User=0,01s Sys=0,00s Real=0,01s
[2021-01-25T20:00:03.548+0100][gc,marking  ] GC(5) Concurrent Rebuild Remembered Sets
[2021-01-25T20:00:03.557+0100][gc,marking  ] GC(5) Concurrent Rebuild Remembered Sets 8,761ms
[2021-01-25T20:00:03.558+0100][gc,start    ] GC(5) Pause Cleanup
[2021-01-25T20:00:03.558+0100][gc          ] GC(5) Pause Cleanup 143M->143M(1024M) 0,258ms
[2021-01-25T20:00:03.558+0100][gc,cpu      ] GC(5) User=0,00s Sys=0,00s Real=0,00s
[2021-01-25T20:00:03.558+0100][gc,marking  ] GC(5) Concurrent Cleanup for Next Mark
[2021-01-25T20:00:03.564+0100][gc,marking  ] GC(5) Concurrent Cleanup for Next Mark 5,672ms
[2021-01-25T20:00:03.564+0100][gc          ] GC(5) Concurrent Cycle 28,612ms
[2021-01-25T20:06:00.908+0100][gc,start    ] GC(6) Pause Young (Normal) (G1 Evacuation Pause)
[2021-01-25T20:06:00.908+0100][gc,task     ] GC(6) Using 8 workers of 8 for evacuation
[2021-01-25T20:06:00.918+0100][gc,phases   ] GC(6)   Pre Evacuate Collection Set: 0,2ms
[2021-01-25T20:06:00.918+0100][gc,phases   ] GC(6)   Merge Heap Roots: 0,1ms
[2021-01-25T20:06:00.918+0100][gc,phases   ] GC(6)   Evacuate Collection Set: 7,0ms
[2021-01-25T20:06:00.918+0100][gc,phases   ] GC(6)   Post Evacuate Collection Set: 2,6ms
[2021-01-25T20:06:00.918+0100][gc,phases   ] GC(6)   Other: 0,2ms
[2021-01-25T20:06:00.918+0100][gc,heap     ] GC(6) Eden regions: 50->0(47)
[2021-01-25T20:06:00.918+0100][gc,heap     ] GC(6) Survivor regions: 1->4(7)
[2021-01-25T20:06:00.918+0100][gc,heap     ] GC(6) Old regions: 12->12
[2021-01-25T20:06:00.918+0100][gc,heap     ] GC(6) Archive regions: 2->2
[2021-01-25T20:06:00.918+0100][gc,heap     ] GC(6) Humongous regions: 129->129
[2021-01-25T20:06:00.918+0100][gc,metaspace] GC(6) Metaspace: 40057K(40960K)->40057K(40960K) NonClass: 35691K(36352K)->35691K(36352K) Class: 4365K(4608K)->4365K(4608K)
[2021-01-25T20:06:00.918+0100][gc          ] GC(6) Pause Young (Normal) (G1 Evacuation Pause) 192M->145M(1024M) 10,388ms
[2021-01-25T20:06:00.919+0100][gc,cpu      ] GC(6) User=0,03s Sys=0,00s Real=0,01s
[2021-01-25T20:39:33.765+0100][gc,start    ] GC(7) Pause Young (Normal) (G1 Evacuation Pause)
[2021-01-25T20:39:33.765+0100][gc,task     ] GC(7) Using 8 workers of 8 for evacuation
[2021-01-25T20:39:33.773+0100][gc,phases   ] GC(7)   Pre Evacuate Collection Set: 0,2ms
[2021-01-25T20:39:33.773+0100][gc,phases   ] GC(7)   Merge Heap Roots: 0,1ms
[2021-01-25T20:39:33.773+0100][gc,phases   ] GC(7)   Evacuate Collection Set: 6,6ms
[2021-01-25T20:39:33.773+0100][gc,phases   ] GC(7)   Post Evacuate Collection Set: 0,6ms
[2021-01-25T20:39:33.773+0100][gc,phases   ] GC(7)   Other: 0,2ms
[2021-01-25T20:39:33.773+0100][gc,heap     ] GC(7) Eden regions: 47->0(47)
[2021-01-25T20:39:33.773+0100][gc,heap     ] GC(7) Survivor regions: 4->4(7)
[2021-01-25T20:39:33.773+0100][gc,heap     ] GC(7) Old regions: 12->13
[2021-01-25T20:39:33.773+0100][gc,heap     ] GC(7) Archive regions: 2->2
[2021-01-25T20:39:33.773+0100][gc,heap     ] GC(7) Humongous regions: 129->129
[2021-01-25T20:39:33.773+0100][gc,metaspace] GC(7) Metaspace: 40311K(41216K)->40311K(41216K) NonClass: 35931K(36608K)->35931K(36608K) Class: 4380K(4608K)->4380K(4608K)
[2021-01-25T20:39:33.773+0100][gc          ] GC(7) Pause Young (Normal) (G1 Evacuation Pause) 192M->145M(1024M) 7,770ms
[2021-01-25T20:39:33.773+0100][gc,cpu      ] GC(7) User=0,03s Sys=0,00s Real=0,01s
[2021-01-25T21:10:48.765+0100][gc,start    ] GC(8) Pause Young (Normal) (G1 Evacuation Pause)
[2021-01-25T21:10:48.765+0100][gc,task     ] GC(8) Using 8 workers of 8 for evacuation
[2021-01-25T21:10:48.769+0100][gc,phases   ] GC(8)   Pre Evacuate Collection Set: 0,1ms
[2021-01-25T21:10:48.769+0100][gc,phases   ] GC(8)   Merge Heap Roots: 0,1ms
[2021-01-25T21:10:48.769+0100][gc,phases   ] GC(8)   Evacuate Collection Set: 2,9ms
[2021-01-25T21:10:48.769+0100][gc,phases   ] GC(8)   Post Evacuate Collection Set: 0,6ms
[2021-01-25T21:10:48.769+0100][gc,phases   ] GC(8)   Other: 0,1ms
[2021-01-25T21:10:48.769+0100][gc,heap     ] GC(8) Eden regions: 47->0(49)
[2021-01-25T21:10:48.769+0100][gc,heap     ] GC(8) Survivor regions: 4->5(7)
[2021-01-25T21:10:48.769+0100][gc,heap     ] GC(8) Old regions: 13->13
[2021-01-25T21:10:48.769+0100][gc,heap     ] GC(8) Archive regions: 2->2
[2021-01-25T21:10:48.769+0100][gc,heap     ] GC(8) Humongous regions: 129->129
[2021-01-25T21:10:48.769+0100][gc,metaspace] GC(8) Metaspace: 40486K(41472K)->40486K(41472K) NonClass: 36105K(36864K)->36105K(36864K) Class: 4380K(4608K)->4380K(4608K)
[2021-01-25T21:10:48.769+0100][gc          ] GC(8) Pause Young (Normal) (G1 Evacuation Pause) 192M->146M(1024M) 3,912ms
[2021-01-25T21:10:48.769+0100][gc,cpu      ] GC(8) User=0,02s Sys=0,00s Real=0,01s
[2021-01-25T21:29:06.518+0100][gc,start    ] GC(9) Pause Young (Normal) (G1 Evacuation Pause)
[2021-01-25T21:29:06.518+0100][gc,task     ] GC(9) Using 8 workers of 8 for evacuation
[2021-01-25T21:29:06.531+0100][gc,phases   ] GC(9)   Pre Evacuate Collection Set: 0,3ms
[2021-01-25T21:29:06.531+0100][gc,phases   ] GC(9)   Merge Heap Roots: 0,2ms
[2021-01-25T21:29:06.531+0100][gc,phases   ] GC(9)   Evacuate Collection Set: 10,7ms
[2021-01-25T21:29:06.531+0100][gc,phases   ] GC(9)   Post Evacuate Collection Set: 1,2ms
[2021-01-25T21:29:06.531+0100][gc,phases   ] GC(9)   Other: 0,4ms
[2021-01-25T21:29:06.531+0100][gc,heap     ] GC(9) Eden regions: 49->0(81)
[2021-01-25T21:29:06.531+0100][gc,heap     ] GC(9) Survivor regions: 5->3(7)
[2021-01-25T21:29:06.531+0100][gc,heap     ] GC(9) Old regions: 13->15
[2021-01-25T21:29:06.531+0100][gc,heap     ] GC(9) Archive regions: 2->2
[2021-01-25T21:29:06.531+0100][gc,heap     ] GC(9) Humongous regions: 129->129
[2021-01-25T21:29:06.531+0100][gc,metaspace] GC(9) Metaspace: 40616K(41728K)->40616K(41728K) NonClass: 36235K(37120K)->36235K(37120K) Class: 4381K(4608K)->4381K(4608K)
[2021-01-25T21:29:06.531+0100][gc          ] GC(9) Pause Young (Normal) (G1 Evacuation Pause) 195M->146M(1024M) 13,072ms
[2021-01-25T21:29:06.531+0100][gc,cpu      ] GC(9) User=0,08s Sys=0,00s Real=0,02s
[2021-01-25T21:53:53.766+0100][gc,start    ] GC(10) Pause Young (Normal) (G1 Evacuation Pause)
[2021-01-25T21:53:53.766+0100][gc,task     ] GC(10) Using 8 workers of 8 for evacuation
[2021-01-25T21:53:53.773+0100][gc,phases   ] GC(10)   Pre Evacuate Collection Set: 0,3ms
[2021-01-25T21:53:53.773+0100][gc,phases   ] GC(10)   Merge Heap Roots: 0,2ms
[2021-01-25T21:53:53.773+0100][gc,phases   ] GC(10)   Evacuate Collection Set: 4,9ms
[2021-01-25T21:53:53.774+0100][gc,phases   ] GC(10)   Post Evacuate Collection Set: 1,5ms
[2021-01-25T21:53:53.774+0100][gc,phases   ] GC(10)   Other: 0,4ms
[2021-01-25T21:53:53.774+0100][gc,heap     ] GC(10) Eden regions: 81->0(344)
[2021-01-25T21:53:53.774+0100][gc,heap     ] GC(10) Survivor regions: 3->2(11)
[2021-01-25T21:53:53.774+0100][gc,heap     ] GC(10) Old regions: 15->15
[2021-01-25T21:53:53.774+0100][gc,heap     ] GC(10) Archive regions: 2->2
[2021-01-25T21:53:53.774+0100][gc,heap     ] GC(10) Humongous regions: 129->129
[2021-01-25T21:53:53.774+0100][gc,metaspace] GC(10) Metaspace: 40706K(41728K)->40706K(41728K) NonClass: 36324K(37120K)->36324K(37120K) Class: 4381K(4608K)->4381K(4608K)
[2021-01-25T21:53:53.774+0100][gc          ] GC(10) Pause Young (Normal) (G1 Evacuation Pause) 227M->146M(1024M) 7,666ms
[2021-01-25T21:53:53.774+0100][gc,cpu      ] GC(10) User=0,05s Sys=0,00s Real=0,01s
[2021-01-25T23:42:13.766+0100][gc,start    ] GC(11) Pause Young (Normal) (G1 Evacuation Pause)
[2021-01-25T23:42:13.766+0100][gc,task     ] GC(11) Using 8 workers of 8 for evacuation
[2021-01-25T23:42:13.773+0100][gc,phases   ] GC(11)   Pre Evacuate Collection Set: 0,4ms
[2021-01-25T23:42:13.773+0100][gc,phases   ] GC(11)   Merge Heap Roots: 0,2ms
[2021-01-25T23:42:13.773+0100][gc,phases   ] GC(11)   Evacuate Collection Set: 5,6ms
[2021-01-25T23:42:13.773+0100][gc,phases   ] GC(11)   Post Evacuate Collection Set: 0,5ms
[2021-01-25T23:42:13.773+0100][gc,phases   ] GC(11)   Other: 0,5ms
[2021-01-25T23:42:13.773+0100][gc,heap     ] GC(11) Eden regions: 344->0(610)
[2021-01-25T23:42:13.773+0100][gc,heap     ] GC(11) Survivor regions: 2->3(44)
[2021-01-25T23:42:13.773+0100][gc,heap     ] GC(11) Old regions: 15->15
[2021-01-25T23:42:13.773+0100][gc,heap     ] GC(11) Archive regions: 2->2
[2021-01-25T23:42:13.773+0100][gc,heap     ] GC(11) Humongous regions: 129->129
[2021-01-25T23:42:13.773+0100][gc,metaspace] GC(11) Metaspace: 40859K(41728K)->40859K(41728K) NonClass: 36477K(37120K)->36477K(37120K) Class: 4381K(4608K)->4381K(4608K)
[2021-01-25T23:42:13.773+0100][gc          ] GC(11) Pause Young (Normal) (G1 Evacuation Pause) 490M->146M(1024M) 7,328ms
[2021-01-25T23:42:13.773+0100][gc,cpu      ] GC(11) User=0,04s Sys=0,00s Real=0,01s
