[2021-01-25T12:08:46.500+0100][gc] Using G1
[2021-01-25T12:08:46.505+0100][gc,init] Version: 15.0.2+7-27 (release)
[2021-01-25T12:08:46.505+0100][gc,init] CPUs: 8 total, 8 available
[2021-01-25T12:08:46.505+0100][gc,init] Memory: 15775M
[2021-01-25T12:08:46.505+0100][gc,init] Large Page Support: Disabled
[2021-01-25T12:08:46.505+0100][gc,init] NUMA Support: Disabled
[2021-01-25T12:08:46.505+0100][gc,init] Compressed Oops: Enabled (32-bit)
[2021-01-25T12:08:46.505+0100][gc,init] Heap Region Size: 1M
[2021-01-25T12:08:46.505+0100][gc,init] Heap Min Capacity: 512M
[2021-01-25T12:08:46.505+0100][gc,init] Heap Initial Capacity: 512M
[2021-01-25T12:08:46.505+0100][gc,init] Heap Max Capacity: 512M
[2021-01-25T12:08:46.505+0100][gc,init] Pre-touch: Disabled
[2021-01-25T12:08:46.505+0100][gc,init] Parallel Workers: 8
[2021-01-25T12:08:46.505+0100][gc,init] Concurrent Workers: 2
[2021-01-25T12:08:46.505+0100][gc,init] Concurrent Refinement Workers: 8
[2021-01-25T12:08:46.505+0100][gc,init] Periodic GC: Disabled
[2021-01-25T12:08:46.505+0100][gc,cds ] Mark closed archive regions in map: [0x00000000fff00000, 0x00000000fff7bff8]
[2021-01-25T12:08:46.505+0100][gc,cds ] Mark open archive regions in map: [0x00000000ffe00000, 0x00000000ffe51ff8]
[2021-01-25T12:08:46.505+0100][gc,metaspace] CDS archive(s) mapped at: [0x0000000800000000-0x0000000800b36000-0x0000000800b36000), size 11755520, SharedBaseAddress: 0x0000000800000000, ArchiveRelocationMode: 0.
[2021-01-25T12:08:46.505+0100][gc,metaspace] Compressed class space mapped at: 0x0000000800b38000-0x0000000840b38000, size: 1073741824
[2021-01-25T12:08:46.505+0100][gc,metaspace] Narrow klass base: 0x0000000800000000, Narrow klass shift: 3, Narrow klass range: 0x100000000
[2021-01-25T12:09:12.029+0100][gc,start    ] GC(0) Pause Young (Normal) (G1 Evacuation Pause)
[2021-01-25T12:09:12.030+0100][gc,task     ] GC(0) Using 8 workers of 8 for evacuation
[2021-01-25T12:09:12.034+0100][gc,phases   ] GC(0)   Pre Evacuate Collection Set: 0,1ms
[2021-01-25T12:09:12.034+0100][gc,phases   ] GC(0)   Merge Heap Roots: 0,0ms
[2021-01-25T12:09:12.034+0100][gc,phases   ] GC(0)   Evacuate Collection Set: 2,9ms
[2021-01-25T12:09:12.034+0100][gc,phases   ] GC(0)   Post Evacuate Collection Set: 0,3ms
[2021-01-25T12:09:12.034+0100][gc,phases   ] GC(0)   Other: 1,0ms
[2021-01-25T12:09:12.034+0100][gc,heap     ] GC(0) Eden regions: 25->0(21)
[2021-01-25T12:09:12.034+0100][gc,heap     ] GC(0) Survivor regions: 0->4(4)
[2021-01-25T12:09:12.034+0100][gc,heap     ] GC(0) Old regions: 0->2
[2021-01-25T12:09:12.034+0100][gc,heap     ] GC(0) Archive regions: 2->2
[2021-01-25T12:09:12.034+0100][gc,heap     ] GC(0) Humongous regions: 0->0
[2021-01-25T12:09:12.034+0100][gc,metaspace] GC(0) Metaspace: 7661K(8192K)->7661K(8192K) NonClass: 6801K(7168K)->6801K(7168K) Class: 860K(1024K)->860K(1024K)
[2021-01-25T12:09:12.034+0100][gc          ] GC(0) Pause Young (Normal) (G1 Evacuation Pause) 25M->6M(512M) 4,497ms
[2021-01-25T12:09:12.034+0100][gc,cpu      ] GC(0) User=0,01s Sys=0,02s Real=0,01s
[2021-01-25T18:25:06.483+0100][gc,heap,exit] Heap
[2021-01-25T18:25:06.483+0100][gc,heap,exit]  garbage-first heap   total 524288K, used 26730K [0x00000000e0000000, 0x0000000100000000)
[2021-01-25T18:25:06.483+0100][gc,heap,exit]   region size 1024K, 25 young (25600K), 4 survivors (4096K)
[2021-01-25T18:25:06.483+0100][gc,heap,exit]  Metaspace       used 8332K, capacity 8490K, committed 8704K, reserved 1056768K
[2021-01-25T18:25:06.483+0100][gc,heap,exit]   class space    used 877K, capacity 929K, committed 1024K, reserved 1048576K
