[2021-01-25T19:22:34.776+0100][gc] Using G1
[2021-01-25T19:22:34.779+0100][gc,init] Version: 15.0.2+7-27 (release)
[2021-01-25T19:22:34.779+0100][gc,init] CPUs: 8 total, 8 available
[2021-01-25T19:22:34.779+0100][gc,init] Memory: 15775M
[2021-01-25T19:22:34.779+0100][gc,init] Large Page Support: Disabled
[2021-01-25T19:22:34.779+0100][gc,init] NUMA Support: Disabled
[2021-01-25T19:22:34.779+0100][gc,init] Compressed Oops: Enabled (32-bit)
[2021-01-25T19:22:34.779+0100][gc,init] Heap Region Size: 1M
[2021-01-25T19:22:34.779+0100][gc,init] Heap Min Capacity: 512M
[2021-01-25T19:22:34.779+0100][gc,init] Heap Initial Capacity: 512M
[2021-01-25T19:22:34.779+0100][gc,init] Heap Max Capacity: 512M
[2021-01-25T19:22:34.779+0100][gc,init] Pre-touch: Disabled
[2021-01-25T19:22:34.779+0100][gc,init] Parallel Workers: 8
[2021-01-25T19:22:34.779+0100][gc,init] Concurrent Workers: 2
[2021-01-25T19:22:34.779+0100][gc,init] Concurrent Refinement Workers: 8
[2021-01-25T19:22:34.779+0100][gc,init] Periodic GC: Disabled
[2021-01-25T19:22:34.780+0100][gc,cds ] Mark closed archive regions in map: [0x00000000fff00000, 0x00000000fff7bff8]
[2021-01-25T19:22:34.780+0100][gc,cds ] Mark open archive regions in map: [0x00000000ffe00000, 0x00000000ffe51ff8]
[2021-01-25T19:22:34.780+0100][gc,metaspace] CDS archive(s) mapped at: [0x0000000800000000-0x0000000800b36000-0x0000000800b36000), size 11755520, SharedBaseAddress: 0x0000000800000000, ArchiveRelocationMode: 0.
[2021-01-25T19:22:34.780+0100][gc,metaspace] Compressed class space mapped at: 0x0000000800b38000-0x0000000840b38000, size: 1073741824
[2021-01-25T19:22:34.780+0100][gc,metaspace] Narrow klass base: 0x0000000800000000, Narrow klass shift: 3, Narrow klass range: 0x100000000
[2021-01-25T19:23:00.166+0100][gc,start    ] GC(0) Pause Young (Normal) (G1 Evacuation Pause)
[2021-01-25T19:23:00.167+0100][gc,task     ] GC(0) Using 8 workers of 8 for evacuation
[2021-01-25T19:23:00.171+0100][gc,phases   ] GC(0)   Pre Evacuate Collection Set: 0,1ms
[2021-01-25T19:23:00.171+0100][gc,phases   ] GC(0)   Merge Heap Roots: 0,0ms
[2021-01-25T19:23:00.171+0100][gc,phases   ] GC(0)   Evacuate Collection Set: 3,1ms
[2021-01-25T19:23:00.171+0100][gc,phases   ] GC(0)   Post Evacuate Collection Set: 0,4ms
[2021-01-25T19:23:00.171+0100][gc,phases   ] GC(0)   Other: 0,9ms
[2021-01-25T19:23:00.171+0100][gc,heap     ] GC(0) Eden regions: 25->0(21)
[2021-01-25T19:23:00.171+0100][gc,heap     ] GC(0) Survivor regions: 0->4(4)
[2021-01-25T19:23:00.171+0100][gc,heap     ] GC(0) Old regions: 0->2
[2021-01-25T19:23:00.171+0100][gc,heap     ] GC(0) Archive regions: 2->2
[2021-01-25T19:23:00.171+0100][gc,heap     ] GC(0) Humongous regions: 0->0
[2021-01-25T19:23:00.171+0100][gc,metaspace] GC(0) Metaspace: 7671K(8192K)->7671K(8192K) NonClass: 6811K(7168K)->6811K(7168K) Class: 860K(1024K)->860K(1024K)
[2021-01-25T19:23:00.171+0100][gc          ] GC(0) Pause Young (Normal) (G1 Evacuation Pause) 25M->6M(512M) 4,561ms
[2021-01-25T19:23:00.171+0100][gc,cpu      ] GC(0) User=0,02s Sys=0,00s Real=0,01s
[2021-01-26T02:03:06.360+0100][gc,start    ] GC(1) Pause Young (Normal) (G1 Evacuation Pause)
[2021-01-26T02:03:06.360+0100][gc,task     ] GC(1) Using 8 workers of 8 for evacuation
[2021-01-26T02:03:06.376+0100][gc,phases   ] GC(1)   Pre Evacuate Collection Set: 0,2ms
[2021-01-26T02:03:06.376+0100][gc,phases   ] GC(1)   Merge Heap Roots: 0,1ms
[2021-01-26T02:03:06.376+0100][gc,phases   ] GC(1)   Evacuate Collection Set: 14,7ms
[2021-01-26T02:03:06.376+0100][gc,phases   ] GC(1)   Post Evacuate Collection Set: 0,4ms
[2021-01-26T02:03:06.376+0100][gc,phases   ] GC(1)   Other: 0,1ms
[2021-01-26T02:03:06.376+0100][gc,heap     ] GC(1) Eden regions: 21->0(24)
[2021-01-26T02:03:06.376+0100][gc,heap     ] GC(1) Survivor regions: 4->1(4)
[2021-01-26T02:03:06.376+0100][gc,heap     ] GC(1) Old regions: 2->6
[2021-01-26T02:03:06.376+0100][gc,heap     ] GC(1) Archive regions: 2->2
[2021-01-26T02:03:06.376+0100][gc,heap     ] GC(1) Humongous regions: 0->0
[2021-01-26T02:03:06.376+0100][gc,metaspace] GC(1) Metaspace: 8341K(8704K)->8341K(8704K) NonClass: 7464K(7680K)->7464K(7680K) Class: 877K(1024K)->877K(1024K)
[2021-01-26T02:03:06.376+0100][gc          ] GC(1) Pause Young (Normal) (G1 Evacuation Pause) 27M->6M(512M) 15,679ms
[2021-01-26T02:03:06.376+0100][gc,cpu      ] GC(1) User=0,02s Sys=0,00s Real=0,01s
[2021-01-26T02:03:06.392+0100][gc,heap,exit] Heap
[2021-01-26T02:03:06.392+0100][gc,heap,exit]  garbage-first heap   total 524288K, used 6984K [0x00000000e0000000, 0x0000000100000000)
[2021-01-26T02:03:06.392+0100][gc,heap,exit]   region size 1024K, 2 young (2048K), 1 survivors (1024K)
[2021-01-26T02:03:06.392+0100][gc,heap,exit]  Metaspace       used 8343K, capacity 8482K, committed 8704K, reserved 1056768K
[2021-01-26T02:03:06.392+0100][gc,heap,exit]   class space    used 877K, capacity 929K, committed 1024K, reserved 1048576K
